Retrieve the frequency of Lexical units and the evoked submappings — get_lu_submappings_table • happyr
…
    A tibble containing the submappings, LUs and the glosses,
    frequency of each LUs of the metaphor,
    percentage of each LUs in the metaphor,
    and percentage of each LUs by the evoked submappings.

    References

    Rajeg, G. P. W. (2018). Metaphorical profiles and near-synonyms: A corpus-based study of Indonesian words for HAPPINESS. PhD Thesis. Monash University. Melbourne, Australia.

    Examples

# for all synonyms
get_lu_submappings_table(metaphor = "liquid in a container",
                         df = phd_data_metaphor)
#> # A tibble: 37 x 6
#>    submappings       lu     lu_gloss        n perc_expr_overa… perc_expr_by_sub…
#>    <chr>             <chr>  <chr>       <int>            <dbl>             <dbl>
#>  1 expression of ha… terpa… to be spur…    43            27.6                 43
#>  2 expression of ha… luapan overflow       25            16.0                 25
#>  3 expression of ha… panca… to spurt s…     9             5.77                 9
#>  4 expression of ha… salur… to funnel …     4             2.56                 4
#>  5 expression of ha… panca… a spurting…     3             1.92                 3
#>  6 expression of ha… curah… outpouring      2             1.28                 2
#>  7 expression of ha… tertu… to be pour…     2             1.28                 2
#>  8 expression of ha… tuang… to pour ou…     2             1.28                 2
#>  9 expression of ha… air b… flood           1             0.64                 1
#> 10 expression of ha… alirk… to flow an…     1             0.64                 1
#> # … with 27 more rows
…
